Lab1/wokwi-logic.vcd
$version Generated by Wokwi.com $end
$date Mon, 30 Mar 2026 16:48:10 GMT $end
$timescale 1ns $end
$scope module logic $end
$var wire 1 ! D0 $end
$var wire 1 " D1 $end
$var wire 1 # D2 $end
$var wire 1 $ D3 $end
$var wire 1 % D4 $end
$upscope $end
$enddefinitions $end
#0
0!
#0
1"
#0
0#
#0
1$
#0
0%
#513357613
0"
#513652167
0$
#2514585571
1!
#2914423375
0!
#4514585571
1!
#4914423375
0!
#5204634646
1"
#5604423375
0"
#6054635271
1#
#6454423375
0#
#6514585571
1!
#6914423375
0!
#6924635271
1#
#7324423375
0#
#8264634646
1"
#8664423375
0"
#8674633396
1!
#9074423375
0!
#10514585571
1!
#10914423375
0!
#11104636521
1%
#11504423375
0%
#12514585571
1!
#12914423375
0!
#12924635271
1#
#13324423375
0#
#14514585571
1!
#14914423375
0!
#15004635771
1$
#15404423375
0$
#15414635771
1$
#15814423375
0$
#15824635771
1$
#16224423375
0$
#16234635771
1$
#16634423375
0$
#16644633396
1!
#17044423375
0!
#17054635771
1$
#17454423375
0$
#17464635771
1$
#17864423375
0$
#17874635771
1$
#18274423375
0$
#18284635771
1$
#18684423375
0$
#18694633396
1!
#19094423375
0!
#19104635771
1$
#19504423375
0$
#19514635771
1$
#19914423375
0$
#19924634646
1"
#20324423375
0"
#20334635771
1$
#20734423375
0$
#20744633396
1!
#21144423375
0!
#21154635271
1#
#21554423375
0#
#21564635771
1$
#21964423375
0$
#21974635771
1$
#22374423375
0$
#22384635771
1$
#22784423375
0$
#22794633396
1!
#23194423375
0!
#23204634646
1"
#23604423375
0"
#23614635771
1$
#24014423375
0$
#24024635271
1#
#24424423375
0#
#24434635771
1$
#24834423375
0$
#24844633396
1!
#25244423375
0!
#25254635771
1$
#25654423375
0$
#25664635771
1$
#26064423375
0$
#26074635771
1$
#26474423376
0$
#26484635771
1$
#26884423376
0$
#26894633396
1!
#27294423376
0!
#27304635771
1$
#27704423376
0$
#27714635771
1$
#28114423376
0$
#28124635772
1$
#28524423376
0$
#28534633397
1!
#28934423376
0!
#28944635772
1$
#29344423376
0$
#29354635272
1#
#29754423376
0#
#29764635772
1$
#30164423376
0$
#30174635772
1$
#30574423376
0$
#30584633397
1!
#30984423376
0!
#30994635772
1$
#31394423376
0$
#31404635772
1$
#31804423376
0$
#31814636522
1%
#32214423376
0%
#32514585568
1!
#32914423372
0!
#34514585568
1!
#34914423372
0!
#35254636518
1%
#35654423376
0%
#36394635272
1#
#36794423376
0#
#36804633397
1!
#37204423376
0!
#38503854538
0!
#38503854538
0!
